%YAML 1.1
%TAG !u! tag:unity3d.com,2011:
--- !u!114 &11400000
MonoBehaviour:
  m_ObjectHideFlags: 0
  m_CorrespondingSourceObject: {fileID: 0}
  m_PrefabInstance: {fileID: 0}
  m_PrefabAsset: {fileID: 0}
  m_GameObject: {fileID: 0}
  m_Enabled: 1
  m_EditorHideFlags: 0
  m_Script: {fileID: 11500000, guid: 534e857c15b92dd43bf69826813d0660, type: 3}
  m_Name: Unarmed
  m_EditorClassIdentifier: 
  itemIcon: {fileID: 0}
  itemName: 
  modelPrefab: {fileID: 220710551445429548, guid: 410f92a8ba8e9644b838de623ace37dc, type: 3}
  isUnarmed: 1
  OH_Light_Attack_1: 
  OH_Light_Attack_2: 
  OH_Heavy_Attack_1: 
